<?xml version="1.0" encoding="UTF-8"?>
<glyph name="dotlessi" format="1">
  <advance width="600"/>
  <unicode hex="0131"/>
  <outline>
    <contour>
      <point x="346" y="-12" type="curve" smooth="yes"/>
      <point x="401" y="-12"/>
      <point x="441" y="0"/>
      <point x="483" y="19" type="curve"/>
      <point x="462" y="89" type="line"/>
      <point x="428" y="74"/>
      <point x="402" y="65"/>
      <point x="373" y="65" type="curve" smooth="yes"/>
      <point x="331" y="65"/>
      <point x="302" y="84"/>
      <point x="302" y="133" type="curve" smooth="yes"/>
      <point x="302" y="142"/>
      <point x="304" y="152"/>
      <point x="306" y="163" type="curve" smooth="yes"/>
      <point x="379" y="489" type="line"/>
      <point x="113" y="489" type="line"/>
      <point x="98" y="415" type="line"/>
      <point x="272" y="415" type="line"/>
      <point x="216" y="170" type="line" smooth="yes"/>
      <point x="211" y="150"/>
      <point x="208" y="132"/>
      <point x="208" y="115" type="curve" smooth="yes"/>
      <point x="208" y="33"/>
      <point x="264" y="-12"/>
    </contour>
    <contour>
      <point x="359" y="0" type="move" name="ogonekLC"/>
    </contour>
    <contour>
      <point x="320" y="510" type="move" name="aboveLC"/>
    </contour>
    <contour>
      <point x="348" y="0" type="move" name="baseLC"/>
    </contour>
    <contour>
      <point x="328" y="-20" type="move" name="belowLC"/>
    </contour>
  </outline>
</glyph>
