<?xml version="1.0" encoding="UTF-8"?>
<glyph name="uniE0B2" format="1">
  <advance width="600"/>
  <outline>
    <contour>
      <point x="611" y="-280" type="line"/>
      <point x="611" y="1040" type="line"/>
      <point x="0" y="380" type="line"/>
    </contour>
  </outline>
</glyph>
