<?xml version="1.0" encoding="UTF-8"?>
<glyph name="dieresisacutecmb" format="1">
  <advance width="600"/>
  <outline>
    <contour>
      <point x="197" y="579" type="curve" smooth="yes"/>
      <point x="228" y="579"/>
      <point x="251" y="603"/>
      <point x="251" y="633" type="curve" smooth="yes"/>
      <point x="251" y="663"/>
      <point x="228" y="686"/>
      <point x="197" y="686" type="curve" smooth="yes"/>
      <point x="166" y="686"/>
      <point x="144" y="663"/>
      <point x="144" y="633" type="curve" smooth="yes"/>
      <point x="144" y="603"/>
      <point x="166" y="579"/>
    </contour>
    <contour>
      <point x="403" y="579" type="curve" smooth="yes"/>
      <point x="434" y="579"/>
      <point x="456" y="603"/>
      <point x="456" y="633" type="curve" smooth="yes"/>
      <point x="456" y="663"/>
      <point x="434" y="686"/>
      <point x="403" y="686" type="curve" smooth="yes"/>
      <point x="372" y="686"/>
      <point x="349" y="663"/>
      <point x="349" y="633" type="curve" smooth="yes"/>
      <point x="349" y="603"/>
      <point x="372" y="579"/>
    </contour>
    <contour>
      <point x="300" y="709" type="line"/>
      <point x="398" y="820" type="line"/>
      <point x="334" y="863" type="line"/>
      <point x="254" y="739" type="line"/>
    </contour>
    <contour>
      <point x="300" y="512" type="move" name="_aboveLC"/>
    </contour>
  </outline>
</glyph>
